CP03
…
CP03

Jose López Galdón

2020-11-05

CARGAMOS LOS DATOS

Visualizamos los datos.

raw_data

## # A tibble: 65 x 11
##    Country Overall Issues Explain Evidence Interest Support Income Health    Edu
##    <chr>     <dbl>  <dbl>   <dbl>    <dbl>    <dbl>   <dbl>  <dbl>  <dbl>  <dbl>
##  1 Albania      NA     NA      NA       NA       NA      NA  0.599  0.886  0.716
##  2 Argent~     391    395     386      385      567     506  0.678  0.868  0.786
##  3 Austra~     527    535     520      531      465     487  0.826  0.965  0.978
##  4 Austria     511    505     516      505      507     515  0.835  0.944  0.824
##  5 Azerba~     382    353     412      344      612     542  0.566  0.78  NA    
##  6 Belgium     510    515     503      516      503     492  0.831  0.935  0.868
##  7 Brazil      390    398     390      378      592     519  0.637  0.818  0.646
##  8 Bulgar~     434    427     444      417      523     527  0.663  0.829  0.778
##  9 Canada      534    532     531      542      469     501  0.84   0.951  0.902
## 10 Chile       438    444     432      440      591     564  0.673  0.923  0.764
## # ... with 55 more rows, and 1 more variable: HDI <dbl>
…
