CP01
…
CP01

Jose López Galdón

28/10/2020

ENLACE A GITHUB: https://github.com/jlopezgaldon/prediction/blob/main/CP01/CP01_v1.Rmd

CARGAMOS LOS DATOS

Visualizamos los datos.

data_nba

## # A tibble: 485 x 28
##    Player Salary NBA_Country NBA_DraftNumber   Age Tm        G    MP   PER `TS%`
##    <chr>   <dbl> <chr>                 <dbl> <dbl> <chr> <dbl> <dbl> <dbl> <dbl>
##  1 Zhou ~ 8.16e5 China                    43    22 HOU      16    87   0.6 0.303
##  2 Zaza ~ 3.48e6 Georgia                  42    33 GSW      66   937  16.8 0.608
##  3 Zach ~ 1.23e7 USA                      19    36 SAC      59  1508  17.3 0.529
##  4 Zach ~ 3.20e6 USA                      13    22 CHI      24   656  14.6 0.499
##  5 Zach ~ 3.06e6 USA                      10    20 POR      62   979   8.2 0.487
##  6 Yogi ~ 1.31e6 USA                      62    24 DAL      79  2238  11.5 0.543
##  7 Xavie~ 7.42e4 USA                      62    30 BOS       2     7  -4.9 0    
##  8 Xavie~ 4.61e4 Canada                   62    23 MEM       5   118   0.9 0.315
##  9 Wilso~ 1.20e7 USA                      23    30 DEN      70  2200  11.1 0.543
## 10 Willy~ 1.44e6 Spain                    35    23 TOT      45   430  20.6 0.592
## # ... with 475 more rows, and 18 more variables: `3PAr` <dbl>, FTr <dbl>,
## #   `ORB%` <dbl>, `DRB%` <dbl>, `TRB%` <dbl>, `AST%` <dbl>, `STL%` <dbl>,
## #   `BLK%` <dbl>, `TOV%` <dbl>, `USG%` <dbl>, OWS <dbl>, DWS <dbl>, WS <dbl>,
## #   `WS/48` <dbl>, OBPM <dbl>, DBPM <dbl>, BPM <dbl>, VORP <dbl>
…
Comenzamos analizando los valores duplicados, para posteriormente eliminarlos.

# Observamos que cuantos valores duplicados tenemos
nrow(data_nba[duplicated(data_nba$Player), ])

## [1] 2

En este caso tenemos 2 jugadores repetidos.

# Para eliminar los jugadores repetidos:
data_nba <- data_nba[!duplicated(data_nba$Player), ]
data_nba

## # A tibble: 483 x 28
##    Player Salary NBA_Country NBA_DraftNumber   Age Tm        G    MP   PER `TS%`
##    <chr>   <dbl> <chr>                 <dbl> <dbl> <chr> <dbl> <dbl> <dbl> <dbl>
##  1 Zhou ~ 8.16e5 China                    43    22 HOU      16    87   0.6 0.303
##  2 Zaza ~ 3.48e6 Georgia                  42    33 GSW      66   937  16.8 0.608
##  3 Zach ~ 1.23e7 USA                      19    36 SAC      59  1508  17.3 0.529
##  4 Zach ~ 3.20e6 USA                      13    22 CHI      24   656  14.6 0.499
##  5 Zach ~ 3.06e6 USA                      10    20 POR      62   979   8.2 0.487
##  6 Yogi ~ 1.31e6 USA                      62    24 DAL      79  2238  11.5 0.543
##  7 Xavie~ 7.42e4 USA                      62    30 BOS       2     7  -4.9 0    
##  8 Xavie~ 4.61e4 Canada                   62    23 MEM       5   118   0.9 0.315
##  9 Wilso~ 1.20e7 USA                      23    30 DEN      70  2200  11.1 0.543
## 10 Willy~ 1.44e6 Spain                    35    23 TOT      45   430  20.6 0.592
## # ... with 473 more rows, and 18 more variables: `3PAr` <dbl>, FTr <dbl>,
## #   `ORB%` <dbl>, `DRB%` <dbl>, `TRB%` <dbl>, `AST%` <dbl>, `STL%` <dbl>,
## #   `BLK%` <dbl>, `TOV%` <dbl>, `USG%` <dbl>, OWS <dbl>, DWS <dbl>, WS <dbl>,
## #   `WS/48` <dbl>, OBPM <dbl>, DBPM <dbl>, BPM <dbl>, VORP <dbl>
…
El problema que tenemos, es que los nombres de las columnas no tienen el formato adecuado, esto es porque presentas símbolos como %. Por lo que cambiaremos los nombres a minusculas y sustituiremos dichos símbolos.

# Cambiamos los nombres de las variables a minusculas y sustituimos los % por ""
data_nba <- rename_with(data_nba, ~ tolower(gsub("%", "", .x, fixed = TRUE)))

# Cambiamos el 3par por triplepar
data_nba <- rename_with(data_nba, ~ (gsub("3", "triple", .x, fixed = TRUE)))

# Cambiamos el ws/48 por ws48
data_nba <- rename_with(data_nba, ~ (gsub("/", "_", .x, fixed = TRUE)))

# Comprobamos el dataset
data_nba

## # A tibble: 481 x 28
##    player salary nba_country nba_draftnumber   age tm        g    mp   per    ts
##    <chr>   <dbl> <chr>                 <dbl> <dbl> <chr> <dbl> <dbl> <dbl> <dbl>
##  1 Zhou ~ 8.16e5 China                    43    22 HOU      16    87   0.6 0.303
##  2 Zaza ~ 3.48e6 Georgia                  42    33 GSW      66   937  16.8 0.608
##  3 Zach ~ 1.23e7 USA                      19    36 SAC      59  1508  17.3 0.529
##  4 Zach ~ 3.20e6 USA                      13    22 CHI      24   656  14.6 0.499
##  5 Zach ~ 3.06e6 USA                      10    20 POR      62   979   8.2 0.487
##  6 Yogi ~ 1.31e6 USA                      62    24 DAL      79  2238  11.5 0.543
##  7 Xavie~ 7.42e4 USA                      62    30 BOS       2     7  -4.9 0    
##  8 Xavie~ 4.61e4 Canada                   62    23 MEM       5   118   0.9 0.315
##  9 Wilso~ 1.20e7 USA                      23    30 DEN      70  2200  11.1 0.543
## 10 Willy~ 1.44e6 Spain                    35    23 TOT      45   430  20.6 0.592
## # ... with 471 more rows, and 18 more variables: triplepar <dbl>, ftr <dbl>,
## #   orb <dbl>, drb <dbl>, trb <dbl>, ast <dbl>, stl <dbl>, blk <dbl>,
## #   tov <dbl>, usg <dbl>, ows <dbl>, dws <dbl>, ws <dbl>, ws_48 <dbl>,
## #   obpm <dbl>, dbpm <dbl>, bpm <dbl>, vorp <dbl>
…
Mediante la función Box-Cox realizamos un contraste de hipótesis para ver si aplicamos la transformación logarítmica, si lamba (el parámetro de salida) es 0 o cercano a 0 podemos aplicar la transformación logarítmica, en caso de que sea distinto de 0 no se aplica.

BoxCox.lambda(data_nba$salary)

## [1] 0.0259115

Como el resultado es cercano a 0 vamos a probar con la transformación logarítmica:

data_log_nba <- data_nba %>% 
                  mutate(salary = log(salary))

# Comprobamos que ha cambiado
data_log_nba

## # A tibble: 481 x 28
##    player salary nba_country nba_draftnumber   age tm        g    mp   per    ts
##    <chr>   <dbl> <chr>                 <dbl> <dbl> <chr> <dbl> <dbl> <dbl> <dbl>
##  1 Zhou ~   13.6 China                    43    22 HOU      16    87   0.6 0.303
##  2 Zaza ~   15.1 Georgia                  42    33 GSW      66   937  16.8 0.608
##  3 Zach ~   16.3 USA                      19    36 SAC      59  1508  17.3 0.529
##  4 Zach ~   15.0 USA                      13    22 CHI      24   656  14.6 0.499
##  5 Zach ~   14.9 USA                      10    20 POR      62   979   8.2 0.487
##  6 Yogi ~   14.1 USA                      62    24 DAL      79  2238  11.5 0.543
##  7 Xavie~   11.2 USA                      62    30 BOS       2     7  -4.9 0    
##  8 Xavie~   10.7 Canada                   62    23 MEM       5   118   0.9 0.315
##  9 Wilso~   16.3 USA                      23    30 DEN      70  2200  11.1 0.543
## 10 Willy~   14.2 Spain                    35    23 TOT      45   430  20.6 0.592
## # ... with 471 more rows, and 18 more variables: triplepar <dbl>, ftr <dbl>,
## #   orb <dbl>, drb <dbl>, trb <dbl>, ast <dbl>, stl <dbl>, blk <dbl>,
## #   tov <dbl>, usg <dbl>, ows <dbl>, dws <dbl>, ws <dbl>, ws_48 <dbl>,
## #   obpm <dbl>, dbpm <dbl>, bpm <dbl>, vorp <dbl>
…
